{
  "cordova-plugin-inappbrowser": {
    "source": {
      "type": "registry",
      "id": "cordova-plugin-inappbrowser@^3.0.0"
    },
    "is_top_level": true,
    "variables": {}
  },
  "cordova-plugin-device": {
    "source": {
      "type": "registry",
      "id": "cordova-plugin-device@^2.0.2"
    },
    "is_top_level": true,
    "variables": {}
  },
  "phonegap-plugin-barcodescanner": {
    "source": {
      "type": "registry",
      "id": "phonegap-plugin-barcodescanner@^8.0.0"
    },
    "is_top_level": true,
    "variables": {
      "ANDROID_SUPPORT_V4_VERSION": "27.+"
    }
  },
  "cordova-plugin-whitelist": {
    "source": {
      "type": "registry",
      "id": "cordova-plugin-whitelist@^1.3.3"
    },
    "is_top_level": true,
    "variables": {}
  },
  "cordova-plugin-file": {
    "source": {
      "type": "registry",
      "id": "cordova-plugin-file@^6.0.1"
    },
    "is_top_level": true,
    "variables": {}
  },
  "cordova-plugin-dialogs": {
    "source": {
      "type": "registry",
      "id": "cordova-plugin-dialogs@^2.0.1"
    },
    "is_top_level": true,
    "variables": {}
  },
  "cordova-plugin-cache-clear": {
    "source": {
      "type": "registry",
      "id": "cordova-plugin-cache-clear@^1.3.7"
    },
    "is_top_level": true,
    "variables": {}
  },
  "cordova-plugin-splashscreen": {
    "source": {
      "type": "registry",
      "id": "cordova-plugin-splashscreen@^5.0.2"
    },
    "is_top_level": true,
    "variables": {}
  },
  "cordova-plugin-local-notification": {
    "source": {
      "type": "registry",
      "id": "https://github.com/katzer/cordova-plugin-local-notifications.git"
    },
    "is_top_level": true,
    "variables": {}
  },
  "cordova-plugin-badge": {
    "source": {
      "type": "registry",
      "id": "cordova-plugin-badge@>=0.8.5"
    },
    "is_top_level": false,
    "variables": {}
  },
  "cordova-plugin-crypt-file": {
    "source": {
      "type": "registry",
      "id": "cordova-plugin-crypt-file@^1.3.3"
    },
    "is_top_level": true,
    "variables": {}
  },
  "cordova-plugin-ms-adal": {
    "source": {
      "type": "registry",
      "id": "cordova-plugin-ms-adal@^0.10.1"
    },
    "is_top_level": true,
    "variables": {}
  },
  "cordova-plugin-compat": {
    "source": {
      "type": "registry",
      "id": "cordova-plugin-compat@^1.0.0"
    },
    "is_top_level": false,
    "variables": {}
  },
  "cordova-plugin-background-mode": {
    "source": {
      "type": "registry",
      "id": "cordova-plugin-background-mode@^0.7.2"
    },
    "is_top_level": true,
    "variables": {}
  },
  "cordova-fs-plugin-fullscreen": {
    "source": {
      "type": "registry",
      "id": "https://github.com/filfat-Studios-AB/cordova-plugin-fullscreen"
    },
    "is_top_level": true,
    "variables": {}
  },
  "cordova-plugin-iroot": {
    "source": {
      "type": "registry",
      "id": "cordova-plugin-iroot@^0.8.0"
    },
    "is_top_level": true,
    "variables": {
      "ENABLE_BUSYBOX_CHECK": "true"
    }
  }
}